Introduction to the motif package
…
## [[1]]
##           1       2     3    5    6     7      9
## [1,] 862001 8122776 84482 4311 2677 78555 203444

3.2 Regular local landscapes

Another approach would be to divide this large area into many regular rectangles (we refer to them as local landscapes) and to calculate a signature in each of them. The previously used signature, composition has one important flaw though. It only describes how many cells of each category we have. However, it does not distinguish an area with the left half of forest and right half of agriculture from an area with forest mixed with agriculture (think of a green-yellow checkerboard). Gladly, several more types of signatures do exist. It includes a co-occurrence matrix (type = coma).

coma goes to each cell, looks at its value, looks at the values of its neighbors and counts how many neighbors of each class our central cell has.

landcover_coma <- lsp_signature(landcover, type = "coma", window = 200)
landcover_coma

## # A tibble: 298 x 3
##       id na_prop signature    
##  * <int>   <dbl> <list>       
##  1     2  0.644  <int [7 x 7]>
##  2     3  0.0992 <int [7 x 7]>
##  3     4  0.145  <int [7 x 7]>
##  4     5  0.602  <int [7 x 7]>
##  5     6  0.775  <int [7 x 7]>
##  6     9  0.796  <int [7 x 7]>
##  7    38  0.255  <int [7 x 7]>
##  8    39  0      <int [7 x 7]>
##  9    40  0      <int [7 x 7]>
## 10    41  0      <int [7 x 7]>
## # ... with 288 more rows
…
landcover_coma_e <- lsp_signature(
    landcover, type = "coma", window = ecoregions["id"]
)
landcover_coma_e

## # A tibble: 22 x 3
##       id na_prop signature    
##  * <int>   <dbl> <list>       
##  1     1 0.114   <int [7 x 7]>
##  2     2 0.0851  <int [7 x 7]>
##  3     3 0.0377  <int [7 x 7]>
##  4     4 0.0914  <int [7 x 7]>
##  5     5 0       <int [7 x 7]>
##  6     6 0       <int [7 x 7]>
##  7     7 0.00285 <int [7 x 7]>
##  8     8 0.0720  <int [7 x 7]>
##  9     9 0.0508  <int [7 x 7]>
## 10    10 0       <int [7 x 7]>
## # ... with 12 more rows
…
