ARIMA models using fpp3 package by Hyndmann
…
2023-10-18

1 Preparations

1.1 Packages

1.2 Environment

2 Dataset

gafa_stock

## # A tsibble: 5,032 x 8 [!]
## # Key:       Symbol [4]
##    Symbol Date        Open  High   Low Close Adj_Close    Volume
##    <chr>  <date>     <dbl> <dbl> <dbl> <dbl>     <dbl>     <dbl>
##  1 AAPL   2014-01-02  79.4  79.6  78.9  79.0      67.0  58671200
##  2 AAPL   2014-01-03  79.0  79.1  77.2  77.3      65.5  98116900
##  3 AAPL   2014-01-06  76.8  78.1  76.2  77.7      65.9 103152700
##  4 AAPL   2014-01-07  77.8  78.0  76.8  77.1      65.4  79302300
##  5 AAPL   2014-01-08  77.0  77.9  77.0  77.6      65.8  64632400
##  6 AAPL   2014-01-09  78.1  78.1  76.5  76.6      65.0  69787200
##  7 AAPL   2014-01-10  77.1  77.3  75.9  76.1      64.5  76244000
##  8 AAPL   2014-01-13  75.7  77.5  75.7  76.5      64.9  94623200
##  9 AAPL   2014-01-14  76.9  78.1  76.8  78.1      66.1  83140400
## 10 AAPL   2014-01-15  79.1  80.0  78.8  79.6      67.5  97909700
## #  with 5,022 more rows
…
The default setting for monthly data is trend (window = 21). This
usually gives a good balance between overfitting the seasonality and
allowing it to slowly change over time. But, as with any automated
procedure, the default settings will need adjusting for some time
series.

dcmp <- us_retail_employment |> 
    model(
        STL(Employed ~ trend(window = 7) + season(window = "periodic"), 
            robust = TRUE)
    )

components(dcmp)

## # A dable: 357 x 7 [1M]
## # Key:     .model [1]
## # :        Employed = trend + season_year + remainder
##    .model                           Month Emplo  trend seaso remai seaso
##    <chr>                            <mth>   <dbl>  <dbl>   <dbl>   <dbl>   <dbl>
##  1 "STL(Employed ~ trend(window   1990 1  13256. 13250.  -83.1    88.7   13339.
##  2 "STL(Employed ~ trend(window   1990 2  12966. 13234. -279.     11.1   13245.
##  3 "STL(Employed ~ trend(window   1990 3  12938. 13220. -266.    -15.4   13204.
##  4 "STL(Employed ~ trend(window   1990 4  13012. 13206. -190.     -3.00  13203.
##  5 "STL(Employed ~ trend(window   1990 5  13108. 13197.  -91.0     2.48  13199.
##  6 "STL(Employed ~ trend(window   1990 6  13183. 13189.   -9.67    3.44  13192.
##  7 "STL(Employed ~ trend(window   1990 7  13170. 13181.   -8.50   -2.14  13179.
##  8 "STL(Employed ~ trend(window   1990 8  13160. 13172.   -6.51   -6.04  13166.
##  9 "STL(Employed ~ trend(window   1990 9  13113. 13158.  -86.0    41.3   13199.
## 10 "STL(Employed ~ trend(window  1990 10  13185. 13139.   43.7     2.88  13141.
## #  with 347 more rows, and abbreviated variable names Employed, season_year,
## #   remainder, season_adjust
…
## # A tibble: 1  2
##   Symbol ndiffs
##   <chr>   <int>
## 1 GOOG        1

9 Time Series CV

https://otexts.com/fpp3/tscv.html#tscv

google_2015_tr <- google_2015 |>
    stretch_tsibble(.init = 3, .step = 1) |>
    relocate(Date, Symbol, .id)
google_2015_tr

## # A tsibble: 31,875 x 9 [!]
## # Key:       Symbol, .id [250]
##    Date       Symbol   .id  Open  High   Low Close Adj_Close  Volume
##    <date>     <chr>  <int> <dbl> <dbl> <dbl> <dbl>     <dbl>   <dbl>
##  1 2015-01-02 GOOG       1  526.  528.  521.  522.      522. 1447600
##  2 2015-01-05 GOOG       1  520.  521.  510.  511.      511. 2059800
##  3 2015-01-06 GOOG       1  512.  513.  498.  499.      499. 2899900
##  4 2015-01-02 GOOG       2  526.  528.  521.  522.      522. 1447600
##  5 2015-01-05 GOOG       2  520.  521.  510.  511.      511. 2059800
##  6 2015-01-06 GOOG       2  512.  513.  498.  499.      499. 2899900
##  7 2015-01-07 GOOG       2  504.  504.  497.  498.      498. 2065100
##  8 2015-01-02 GOOG       3  526.  528.  521.  522.      522. 1447600
##  9 2015-01-05 GOOG       3  520.  521.  510.  511.      511. 2059800
## 10 2015-01-06 GOOG       3  512.  513.  498.  499.      499. 2899900
## #  with 31,865 more rows
…
